# Copyright 1999-2013 Gentoo Foundation
# Distributed under the terms of the GNU General Public License v2
# $Header: /var/cvsroot/gentoo-x86/profiles/eapi-5-files/package.use.stable.mask,v 1.14 2013/06/09 17:12:05 floppym Exp $

# This file requires eapi 5 or later. New entries go on top.
# Please use the same syntax as in package.use.mask

# Mike Gilbert <floppym@gentoo.org> (09 Jun 2013)
# Requires dev-python/pillow to be stable.
virtual/python-imaging python_targets_python3_2 python_targets_python3_3

# Agostino Sarubbo <ago@gentoo.org> (24 May 2013)
# Justin Lecher <jlec@gentoo.org> (30 May 2313)
# Temporary mask because it needs texinfo-5
# hvm needs qemu #471122
>=app-emulation/xen-tools-4.2.1-r3 qemu hvm

# Chris Reffett <creffett@gentoo.org> (23 Nov 2012)
# CMake's PHP module can't find our install location, so
# libkolab(xml) fails with the php flag enabled, bug #430858.
net-libs/libkolab php
net-libs/libkolabxml php

# Samuli Suominen <ssuominen@gentoo.org> (12 Apr 2013)
# Waiting for >=app-cdr/brasero-3 stabilization
app-pda/gtkpod cdr

# Pawel Hajdan jr <phajdan.jr@gentoo.org> (11 Apr 2013)
# Usually requires recent ffmpeg/libav, not ready for stable.
www-client/chromium system-ffmpeg

# Pacho Ramos <pacho@gentoo.org> (01 Apr 2013)
# Needed to stabilize anjuta-3.6
=dev-util/devhelp-3.6.1-r1 gedit

# Andreas K. Huettel <dilfridge@gentoo.org> (28 Mar 2013)
# No stable sci-chemistry/avogadro yet but we want kde-4.10 to go stable
>=kde-base/kalzium-4.10.0 editor

# Sergey Popov <pinkbyte@gentoo.org> (08 Jun 2013)
# Mask unstable dependencies in leechcraft metapackage
app-leechcraft/leechcraft-meta unstable
